Template code for single-cell droplet quality control
…
Use set.seed() to ensure reproducibility.

set.seed(1)
out <- DropletUtils::emptyDrops(sce, assay.type = "counts", niters = 10000 )

out  %>% 
  as.tibble() %>% 
  filter(!is.na(FDR))

Warning: `as.tibble()` was deprecated in tibble 2.0.0.
ℹ Please use `as_tibble()` instead.
ℹ The signature and semantics have changed, see `?as_tibble`.

# A tibble: 6,434 × 5
   Total LogProb   PValue Limited    FDR
   <int>   <dbl>    <dbl> <lgl>    <dbl>
 1  8385  -9327. 0.000100 TRUE    0     
 2   115   -438. 0.206    FALSE   0.229 
 3 11768 -11280. 0.000100 TRUE    0     
 4  6948  -7412. 0.000100 TRUE    0     
 5  9354  -8277. 0.000100 TRUE    0     
 6   131   -506. 0.0409   FALSE   0.0481
 7  8973  -9939. 0.000100 TRUE    0     
 8  9291  -8416. 0.000100 TRUE    0     
 9 25082 -19238. 0.000100 TRUE    0     
10  8803  -6765. 0.000100 TRUE    0     
# ℹ 6,424 more rows
…
