Template code for single-cell analysis using Bioconductor
…
Bonus

Plot the variance against the mean of each gene (use ggplot2)

library(DelayedMatrixStats)
#
x <- DelayedArray(assay(sce, "counts")) #loads data that is needed rather than all of it at the same time; good for caluclations 
plot_data <- tibble(
    mean = DelayedMatrixStats::rowMeans2(x),
    variance = DelayedMatrixStats::rowVars(x)
)

plot_data

# A tibble: 33,538 × 2
       mean variance
      <dbl>    <dbl>
 1 0        0       
 2 0        0       
 3 0        0       
 4 0.00547  0.00544 
 5 0.000476 0.000476
 6 0        0       
 7 0.000238 0.000238
 8 0        0       
 9 0        0       
10 0        0       
# ℹ 33,528 more rows
…
